com/teste/App.class
com/teste/city/City.class
com/teste/city/CityDAO.class
com/teste/city/CityService.class
com/teste/CsvReader.class
com/teste/city/CityDTO.class
com/teste/NoResultExceptionMapper.class
com/teste/CORSFilter.class
com/teste/city/StateVO.class
com/teste/city/CityResource.class
